Transform:
    Name: Transform Test
    LocalPosition:
        X: 1
        Y: 2
        Z: 5
    LocalRotation:
        X: 10
        Y: 15
        Z: 20
    LocalScale:
        X: 1
        Y: 3
        Z: 9
